<svg xmlns="http://www.w3.org/2000/svg" width="32" height="32">
  <g fill="#FEFEFE" fill-rule="evenodd">
    <path d="M0 32h32V0H0v32zm2-2h28V2H2v28z"/>
    <path d="M8.209 10.333h15.583v-2H8.209zM8.209 17.07h15.583v-2H8.209zM8.208 23.667h9.459v-2H8.208z"/>
  </g>
</svg>
