<svg xmlns="http://www.w3.org/2000/svg" width="32" height="32">
  <g fill="#FEFEFE" fill-rule="evenodd">
    <path d="M0 32h32V0H0v32zm2-2h28V2H2v28z"/>
    <path d="M17.606 19.355l4.072 4.09 1.723-1.715-4.074-4.091 3.028-3.02L8.599 8.556l5.99 13.808z"/>
  </g>
</svg>
