<?xml version="1.0" encoding="utf-8"?>
<svg version="1.0" id="Vrstva_1" xmlns="http://www.w3.org/2000/svg" xmlns:xlink="http://www.w3.org/1999/xlink" width="17" height="17" xml:space="preserve">
<path fill="#9C0F12" d="M16.8,14.7l-4-4C13.6,9.6,14,8.3,14,6.9C14,5,13.3,3.3,12,2C9.3-0.7,5-0.7,2.3,2c-1.3,1.3-2,3-2,4.9
	s0.7,3.6,2,4.9s3,2,4.9,2c1.2,0,2.3-0.3,3.3-0.8l4.1,4.1C14.6,17.1,16.8,14.7,16.8,14.7z M3.7,10.3C2.8,9.4,2.3,8.2,2.3,6.9
	s0.5-2.5,1.4-3.4C4.6,2.5,5.9,2,7.1,2s2.5,0.5,3.4,1.4c0.9,1,1.5,2.2,1.5,3.5s-0.5,2.5-1.4,3.4c-0.9,0.9-2.1,1.4-3.4,1.4
	C5.8,11.7,4.6,11.2,3.7,10.3z"/>
</svg>
