<?xml version="1.0" encoding="utf-8"?>
<!-- Generator: Adobe Illustrator 22.0.1, SVG Export Plug-In . SVG Version: 6.00 Build 0)  -->
<svg version="1.1" id="Vrstva_1" xmlns="http://www.w3.org/2000/svg" xmlns:xlink="http://www.w3.org/1999/xlink" x="0px" y="0px"
	 viewBox="0 0 28 28" style="enable-background:new 0 0 28 28;" xml:space="preserve">
<style type="text/css">
	.fbcolor{fill:#738CB2;}
	.symbol{fill:#FFFFFF;}
</style>
<path id="Rectangle-14" class="fbcolor" d="M14,0L14,0c7.7,0,14,6.3,14,14l0,0c0,7.7-6.3,14-14,14l0,0C6.3,28,0,21.7,0,14l0,0
	C0,6.3,6.3,0,14,0z"/>
<path id="Shape" class="symbol" d="M15,21.4h-3.3v-7.8h-1.6v-2.7h1.6V9.3c0-2.2,0.9-3.5,3.5-3.5h2.2v2.7h-1.3c-1,0-1.1,0.4-1.1,1.1v1.4
	h2.4l-0.3,2.7H15V21.4z"/>
</svg>
