<?xml version="1.0" encoding="UTF-8"?>
<svg width="18px" height="18px" viewBox="0 0 18 18" version="1.1" xmlns="http://www.w3.org/2000/svg" xmlns:xlink="http://www.w3.org/1999/xlink">
    <!-- Generator: Sketch 47.1 (45422) - http://www.bohemiancoding.com/sketch -->
    <title>tick-ok</title>
    <desc>Created with Sketch.</desc>
    <defs>
        <polygon id="path-1" points="18 0.000138461538 18 18 0.000138461538 18 0.000138461538 0.000138461538"></polygon>
    </defs>
    <g id="Desktop" stroke="none" stroke-width="1" fill="none" fill-rule="evenodd">
        <g id="Formulare-1280px" transform="translate(-634.000000, -1379.000000)">
            <g id="tick-ok" transform="translate(634.000000, 1379.000000)">
                <g id="Group-3">
                    <mask id="mask-2" fill="white">
                        <use xlink:href="#path-1"></use>
                    </mask>
                    <g id="Clip-2"></g>
                    <path d="M9.00013846,16.6155231 C4.80129231,16.6155231 1.38475385,13.1989846 1.38475385,9.00013846 C1.38475385,4.80129231 4.80129231,1.38475385 9.00013846,1.38475385 C13.1989846,1.38475385 16.6155231,4.80129231 16.6155231,9.00013846 C16.6155231,13.1989846 13.1989846,16.6155231 9.00013846,16.6155231 M9.00013846,0.000138461538 C4.02936923,0.000138461538 0.000138461538,4.02936923 0.000138461538,9.00013846 C0.000138461538,13.9709077 4.02936923,18.0001385 9.00013846,18.0001385 C13.9709077,18.0001385 18.0001385,13.9709077 18.0001385,9.00013846 C18.0001385,4.02936923 13.9709077,0.000138461538 9.00013846,0.000138461538" id="Fill-1" fill="#64BE00" mask="url(#mask-2)"></path>
                </g>
                <polygon id="Fill-4" fill="#64BE00" points="7.67845385 11.0899385 4.67383846 8.08532308 3.69491538 9.06424615 7.67845385 13.0477846 14.3052231 6.42101538 13.3263 5.44209231"></polygon>
            </g>
        </g>
    </g>
</svg>